…
**4. What taxa are represented in the `homerange` data frame? Make a new data frame `taxa` that is restricted to taxon, common name, class, order, family, genus, species.**  


```r
taxa <-select(homerange,taxon, common.name, class, order, family, genus, species )
taxa
```

```
## # A tibble: 569 × 7
##    taxon         common.name             class        order family genus species
##    <fct>         <chr>                   <chr>        <fct> <chr>  <chr> <chr>  
##  1 lake fishes   american eel            actinoptery… angu… angui… angu… rostra…
##  2 river fishes  blacktail redhorse      actinoptery… cypr… catos… moxo… poecil…
##  3 river fishes  central stoneroller     actinoptery… cypr… cypri… camp… anomal…
##  4 river fishes  rosyside dace           actinoptery… cypr… cypri… clin… fundul…
##  5 river fishes  longnose dace           actinoptery… cypr… cypri… rhin… catara…
##  6 river fishes  muskellunge             actinoptery… esoc… esoci… esox  masqui…
##  7 marine fishes pollack                 actinoptery… gadi… gadid… poll… pollac…
##  8 marine fishes saithe                  actinoptery… gadi… gadid… poll… virens 
##  9 marine fishes lined surgeonfish       actinoptery… perc… acant… acan… lineat…
## 10 marine fishes orangespine unicornfish actinoptery… perc… acant… naso  litura…
## # … with 559 more rows
```


**5. The variable `taxon` identifies the large, common name groups of the species represented in `homerange`. Make a table the shows the counts for each of these `taxon`.**  

```r
select(taxa,contains("taxon"))
```

```
## # A tibble: 569 × 1
##    taxon        
##    <fct>        
##  1 lake fishes  
##  2 river fishes 
##  3 river fishes 
##  4 river fishes 
##  5 river fishes 
##  6 river fishes 
##  7 marine fishes
##  8 marine fishes
##  9 marine fishes
## 10 marine fishes
## # … with 559 more rows
```
…
