…
Problem 6. (2 points) The family Anatidae includes ducks, geese, and swans. Make a new object `ducks` that only includes species in the family Anatidae. Restrict this new dataframe to include all variables except order and family.

```r
ducks <-ecosphere %>% 
  filter(family == 	"Anatidae") %>% 
  select(!c(order, family))
ducks
```

```
## # A tibble: 44 × 19
##    commo…¹ scien…² diet  life_…³ habitat urban…⁴ migra…⁵ log10…⁶ mean_…⁷ mean_…⁸
##    <chr>   <chr>   <chr> <chr>   <chr>   <chr>   <chr>     <dbl>   <dbl>   <dbl>
##  1 "Ameri… Anas r… Vege… Long    Wetland No      Short      3.09     9       1  
##  2 "Ameri… Anas a… Vege… Middle  Wetland No      Short      2.88     7.5     1  
##  3 "Barro… Buceph… Inve… Middle  Wetland No      Modera…    2.96    10.5     3  
##  4 "Black… Branta… Vege… Long    Wetland No      Modera…    3.11     3.5     2.5
##  5 "Black… Melani… Inve… Middle  Wetland No      Modera…    3.02     9.5     2  
##  6 "Black… Dendro… Vege… Short   Wetland No      Withdr…    2.88    13.5     1  
##  7 "Blue-… Anas d… Vege… Middle  Wetland No      Modera…    2.56    10       0.6
##  8 "Buffl… Buceph… Inve… Middle  Wetland No      Short      2.6      8.5     2  
##  9 "Cackl… Branta… Vege… Middle  Wetland Yes     Short      3.45     5       1  
## 10 "Canva… Aythya… Vege… Middle  Wetland No      Short      3.08     8       1  
## # … with 34 more rows, 9 more variables: population_size <dbl>,
## #   winter_range_area <dbl>, range_in_cbc <dbl>, strata <dbl>, circles <dbl>,
## #   feeder_bird <chr>, median_trend <dbl>, lower_95_percent_ci <dbl>,
## #   upper_95_percent_ci <dbl>, and abbreviated variable names ¹​common_name,
## #   ²​scientific_name, ³​life_expectancy, ⁴​urban_affiliate, ⁵​migratory_strategy,
## #   ⁶​log10_mass, ⁷​mean_eggs_per_clutch, ⁸​mean_age_at_sexual_maturity
```
…
Problem 11. (2 points) Consider the results from questions 9 and 10. Are there any species for which their threatened status needs further study? How do you know?


Problem 12. (4 points) Use the `ecosphere` data to perform one exploratory analysis of your choice. The analysis must have a minimum of three lines and two functions. You must also clearly state the question you are attempting to answer.

```r
ecosphere %>% 
  select(scientific_name, diet,mean_eggs_per_clutch) %>% 
  arrange(desc(mean_eggs_per_clutch))
```

```
## # A tibble: 551 × 3
##    scientific_name        diet          mean_eggs_per_clutch
##    <chr>                  <chr>                        <dbl>
##  1 Colinus virginianus    Seed                          17  
##  2 Callipepla squamata    Seed                          15.5
##  3 Alectoris chukar       Seed                          15.5
##  4 Perdix perdix          Seed                          15  
##  5 Mergus serrator        Vertebrates                   14.5
##  6 Dendrocygna autumnalis Vegetation                    13.5
##  7 Dendrocygna bicolor    Vegetation                    13  
##  8 Callipepla californica Omnivore                      13  
##  9 Meleagris gallopavo    Omnivore                      12.5
## 10 Lophodytes cucullatus  Invertebrates                 11  
## # … with 541 more rows
```

```r
ecosphere %>% 
  filter(mean_age_at_sexual_maturity > 1) %>% 
  select(family, mean_age_at_sexual_maturity) %>% 
  arrange(desc(mean_age_at_sexual_maturity))
```

```
## # A tibble: 189 × 2
##    family         mean_age_at_sexual_maturity
##    <chr>                                <dbl>
##  1 Procellariidae                        12.5
##  2 Cathartidae                           10.5
##  3 Diomedeidae                            9  
##  4 Cathartidae                            7.5
##  5 Cathartidae                            6  
##  6 Procellariidae                         6  
##  7 Procellariidae                         6  
##  8 Anatidae                               5.5
##  9 Alcidae                                5.5
## 10 Laridae                                5.5
## # … with 179 more rows
```
…
